<svg width="52" height="52" viewBox="0 0 52 52" fill="none" xmlns="http://www.w3.org/2000/svg">
<circle opacity="0.1" cx="26" cy="26" r="26" fill="#F5A55E"/>
<path d="M35.8906 24.5038V23.9375C35.8906 18.4981 31.4451 14 26 14C20.561 14 16.1094 18.4924 16.1094 23.9375V24.5038C14.8494 25.2343 14 26.5979 14 28.1562C14 30.28 15.5775 32.042 17.6222 32.3326C17.9002 33.173 18.6927 33.7812 19.625 33.7812C20.7881 33.7812 21.7344 32.835 21.7344 31.6719V24.6406C21.7344 23.4775 20.7881 22.5312 19.625 22.5312C18.6927 22.5312 17.9002 23.1395 17.6222 23.9799C17.5865 23.9849 17.551 23.9905 17.5156 23.9964V23.9375C17.5156 19.2334 21.3217 15.4062 26 15.4062C30.6783 15.4062 34.4844 19.2334 34.4844 23.9375V23.9964C34.449 23.9905 34.4135 23.9849 34.3778 23.9799C34.0998 23.1395 33.3073 22.5312 32.375 22.5312C31.2119 22.5312 30.2656 23.4775 30.2656 24.6406V31.6719C30.2656 32.835 31.2119 33.7812 32.375 33.7812C33.3073 33.7812 34.0998 33.173 34.3778 32.3326C34.4135 32.3276 34.449 32.322 34.4844 32.3161V33.6494C34.4844 34.4975 33.7944 35.1875 32.9463 35.1875H27.9884C27.6982 34.3692 26.9166 33.7812 26 33.7812C24.8369 33.7812 23.8906 34.7275 23.8906 35.8906C23.8906 37.0537 24.8369 38 26 38C26.9166 38 27.6982 37.4121 27.9884 36.5938H32.9463C34.5698 36.5938 35.8906 35.2729 35.8906 33.6494V31.8087C37.1506 31.0782 38 29.7146 38 28.1563C38 26.598 37.1506 25.2343 35.8906 24.5038ZM18.9219 24.6406C18.9219 24.2529 19.2373 23.9375 19.625 23.9375C20.0127 23.9375 20.3281 24.2529 20.3281 24.6406V31.6719C20.3281 32.0596 20.0127 32.375 19.625 32.375C19.2373 32.375 18.9219 32.0596 18.9219 31.6719V24.6406ZM17.5156 30.8798C16.304 30.5667 15.4062 29.4643 15.4062 28.1562C15.4062 26.8482 16.304 25.7458 17.5156 25.4328V30.8798ZM33.0781 31.6719C33.0781 32.0596 32.7627 32.375 32.375 32.375C31.9873 32.375 31.6719 32.0596 31.6719 31.6719V24.6406C31.6719 24.2529 31.9873 23.9375 32.375 23.9375C32.7627 23.9375 33.0781 24.2529 33.0781 24.6406V31.6719ZM26 36.5938C25.6123 36.5938 25.2969 36.2783 25.2969 35.8906C25.2969 35.5029 25.6123 35.1875 26 35.1875C26.3877 35.1875 26.7031 35.5029 26.7031 35.8906C26.7031 36.2783 26.3877 36.5938 26 36.5938ZM34.4844 30.8798V25.4328C35.696 25.7458 36.5938 26.8482 36.5938 28.1562C36.5938 29.4643 35.696 30.5667 34.4844 30.8798Z" fill="#F5A55E"/>
</svg>
